UPA_projekt-04
…
# Učitavanje podataka za daljnju obradu podataka
Podaci <- read_excel("Data_SNA.xlsx")
colnames(Podaci)

## [1] "Ime i prezime"                             
## [2] "Spol"                                      
## [3] "Osoba kraj koje najčešće sjedim u učionici"
## [4] "Osoba od koje najčešće tražim pomoć"

names(Podaci)<-c("ImeiPrezime", "Spol", "OsobaKrajKojeNajcesceSjedimuUcionici", "OsobaOdKojeNajcesceTrazimPomoc")

options(width = 100)
head(Podaci,100)

## # A tibble: 55 × 4
##    ImeiPrezime Spol  OsobaKrajKojeNajcesceSjedimuUcionici OsobaOdKojeNajcesceTrazimPomoc
##    <chr>       <chr> <chr>                                <chr>                         
##  1 Domagoj B   M     Nikola B                             Sven Š                        
##  2 Jurica I    M     Ines K                               Ines K                        
##  3 Karlo Ju    M     Gabrijel D                           Ante K                        
##  4 Jelena T    Z     Barbara Č                            Barbara Č                     
##  5 Matea A     Z     Ema T                                Ema T                         
##  6 Alen A      M     Gabrijel D                           Roberto M                     
##  7 Nikola B    M     Martina K                            Martina K                     
##  8 Alan C      M     Lorena J                             Lorena J                      
##  9 Barbara Č   Z     Jelena T                             Jelena T                      
## 10 Gabrijel D  M     Fran S                               Alen A                        
## # ℹ 45 more rows
…
